key,value,label,source
had_dpa_dtn_2017-classe_dtn,A,Objectif de performance dépassé,IQSS dossier patient
had_dpa_dtn_2017-classe_dtn,B,Objectif de performance atteint,IQSS dossier patient
had_dpa_dtn_2017-classe_dtn,C,Objectif de performance non atteint,IQSS dossier patient
na_ias_icsha.2_2015-icsha2_classe,A,Pourcentage de l'objectif minimum personalisé: ≥ 80%,IQSS questionnaire établissement
na_ias_icsha.2_2015-icsha2_classe,B,Pourcentage de l'objectif minimum personalisé: de 60% à 80%,IQSS questionnaire établissement
na_ias_icsha.2_2015-icsha2_classe,C,Pourcentage de l'objectif minimum personalisé: de 40% à 60%,IQSS questionnaire établissement
na_ias_icsha.2_2015-icsha2_classe,D,Pourcentage de l'objectif minimum personalisé: de 20% à 40%,IQSS questionnaire établissement
na_ias_icsha.2_2015-icsha2_classe,E,Pourcentage de l'objectif minimum personalisé: < 20%,IQSS questionnaire établissement
mhs_ias_icsha_2018-icsha_classe,A,Objectif de performance dépassé,IQSS questionnaire établissement
mhs_ias_icsha_2018-icsha_classe,B,Objectif de performance atteint,IQSS questionnaire établissement
mhs_ias_icsha_2018-icsha_classe,C,Objectif de performance non atteint,IQSS questionnaire établissement
psy_ias_icsha_2018-icsha_classe,A,Objectif de performance dépassé,IQSS questionnaire établissement
psy_ias_icsha_2018-icsha_classe,B,Objectif de performance atteint,IQSS questionnaire établissement
psy_ias_icsha_2018-icsha_classe,C,Objectif de performance non atteint,IQSS questionnaire établissement
na_ias_icsha.3_2017-icsha3_classe,A,Pourcentage du volume théorique de PHA à délivrer: ≥ 100%,IQSS questionnaire établissement
na_ias_icsha.3_2017-icsha3_classe,B,Pourcentage du volume théorique de PHA à délivrer: de 80% à 99%,IQSS questionnaire établissement
na_ias_icsha.3_2017-icsha3_classe,C,Pourcentage du volume théorique de PHA à délivrer: < 80%,IQSS questionnaire établissement
mco_dpa_pcd_2018-pcd_classe,A,Objectif de performance dépassé,IQSS dossier patient
mco_dpa_pcd_2018-pcd_classe,B,Objectif de performance atteint,IQSS dossier patient
mco_dpa_pcd_2018-pcd_classe,C,Objectif de performance non atteint,IQSS dossier patient
ssr_dpa_pcd_2018-pcd_classe,A,Objectif de performance dépassé,IQSS dossier patient
ssr_dpa_pcd_2018-pcd_classe,B,Objectif de performance atteint,IQSS dossier patient
ssr_dpa_pcd_2018-pcd_classe,C,Objectif de performance non atteint,IQSS dossier patient
mco_ca_qls_2018-qls_classe,A,Objectif de performance dépassé,IQSS dossier patient
mco_ca_qls_2018-qls_classe,B,Objectif de performance atteint,IQSS dossier patient
mco_ca_qls_2018-qls_classe,C,Objectif de performance non atteint,IQSS dossier patient
ssr_dpa_pspv_2018-pspv_classe,A,Objectif de performance dépassé,IQSS dossier patient
ssr_dpa_pspv_2018-pspv_classe,B,Objectif de performance atteint,IQSS dossier patient
ssr_dpa_pspv_2018-pspv_classe,C,Objectif de performance non atteint,IQSS dossier patient
ssr_dpa_qls_2018-qls_classe,A,Objectif de performance dépassé,IQSS dossier patient
ssr_dpa_qls_2018-qls_classe,B,Objectif de performance atteint,IQSS dossier patient
ssr_dpa_qls_2018-qls_classe,C,Objectif de performance non atteint,IQSS dossier patient
mco_dpa_qls_2017-qls_classe,A,Objectif de performance dépassé,IQSS dossier patient
mco_dpa_qls_2017-qls_classe,B,Objectif de performance atteint,IQSS dossier patient
mco_dpa_qls_2017-qls_classe,C,Objectif de performance non atteint,IQSS dossier patient
had_dpa_tdp_2018-tdp_classe,A,Objectif de performance dépassé,IQSS dossier patient
had_dpa_tdp_2018-tdp_classe,B,Objectif de performance atteint,IQSS dossier patient
had_dpa_tdp_2018-tdp_classe,C,Objectif de performance non atteint,IQSS dossier patient
had_dpa_tre_2017-tre_classe,A,Objectif de performance dépassé,IQSS dossier patient
had_dpa_tre_2017-tre_classe,B,Objectif de performance atteint,IQSS dossier patient
had_dpa_tre_2017-tre_classe,C,Objectif de performance non atteint,IQSS dossier patient
na_ias_ica.bmr_2015-bmr_classe,A,Score à l'indicateur ICA-BMR: ≥ 80,IQSS questionnaire établissement
na_ias_ica.bmr_2015-bmr_classe,B,Score à l'indicateur ICA-BMR: de 60 à 80,IQSS questionnaire établissement
na_ias_ica.bmr_2015-bmr_classe,C,Score à l'indicateur ICA-BMR: de 40 à 60,IQSS questionnaire établissement
na_ias_ica.bmr_2015-bmr_classe,D,Score à l'indicateur ICA-BMR: de 20 à 40,IQSS questionnaire établissement
na_ias_ica.bmr_2015-bmr_classe,E,Score à l'indicateur ICA-BMR: < 20,IQSS questionnaire établissement
na_ias_bn.sarm_2015-bn_sarm_classe,Vert,Score à l'indicateur BN-SARM: de 75 à 100,IQSS questionnaire établissement
na_ias_bn.sarm_2015-bn_sarm_classe,Jaune,Score à l'indicateur BN-SARM: de 50 à 75,IQSS questionnaire établissement
na_ias_bn.sarm_2015-bn_sarm_classe,Orange,Score à l'indicateur BN-SARM: de 0 à 50,IQSS questionnaire établissement
na_ias_ica.liso_2016-icaliso_classe,A,Pourcentage de l'objectif minimum personalisé: ≥ 80%,IQSS questionnaire établissement
na_ias_ica.liso_2016-icaliso_classe,B,Pourcentage de l'objectif minimum personalisé: de 60% à 80%,IQSS questionnaire établissement
na_ias_ica.liso_2016-icaliso_classe,C,Pourcentage de l'objectif minimum personalisé: de 40% à 60%,IQSS questionnaire établissement
na_ias_ica.liso_2016-icaliso_classe,D,Pourcentage de l'objectif minimum personalisé: de 20% à 40%,IQSS questionnaire établissement
na_ias_ica.liso_2016-icaliso_classe,E,Pourcentage de l'objectif minimum personalisé: < 20%,IQSS questionnaire établissement
na_ias_icalin.2_2016-icalin2_classe,A,Pourcentage de l'objectif minimum personalisé: ≥ 80%,IQSS questionnaire établissement
na_ias_icalin.2_2016-icalin2_classe,B,Pourcentage de l'objectif minimum personalisé: de 60% à 80%,IQSS questionnaire établissement
na_ias_icalin.2_2016-icalin2_classe,C,Pourcentage de l'objectif minimum personalisé: de 40% à 60%,IQSS questionnaire établissement
na_ias_icalin.2_2016-icalin2_classe,D,Pourcentage de l'objectif minimum personalisé: de 20% à 40%,IQSS questionnaire établissement
na_ias_icalin.2_2016-icalin2_classe,E,Pourcentage de l'objectif minimum personalisé: < 20%,IQSS questionnaire établissement
