{
  "description": "Ce référentiel historisé d'e-satis est construit à partir des exports mis à disposition en Open Data. Le détail des sources de données est accessible dans le dossier `resources`. Il correspond à une implémentation clé valeur",
  "fields": [
    {
      "constraints": {
        "required": true
      },
      "description": "Finess de l’établissement enquêté",
      "example": "170000087",
      "name": "finess",
      "title": "Finess",
      "type": "string"
    },
    {
      "constraints": {
        "required": true
      },
      "description": "Année où la donnée a été référencée",
      "example": "2013",
      "name": "annee",
      "title": "Annee",
      "type": "integer"
    },
    {
      "constraints": {
        "required": true
      },
      "description": "Nom des indicateurs de qualité et de sécurité des soins permettant la comparaison inter-établissements",
      "example": "nb_rep_score_all_ajust",
      "name": "key",
      "title": "Critère iqss",
      "type": "string"
    },
    {
      "description": "Ce champ affiche les valeurs des indicateurs de type float",
      "example": "523.0",
      "name": "value_float",
      "title": "Valeur des indicateurs de type float",
      "type": "number"
    },
    {
      "description": "Ce champ affiche les valeurs textuelle des indicateurs",
      "example": "Privé lucratif",
      "name": "value_string",
      "title": "Valeur des indicateurs de type text",
      "type": "any"
    },
    {
      "description": "Type du finess de l’établissement enquêté géographique, juridique, pmsi",
      "example": "geo",
      "name": "finess_type",
      "title": "Type du finess",
      "type": "string"
    }
  ],
  "missingValues": [
    ""
  ],
  "primaryKey": [
    "finess",
    "key",
    "annee"
  ],
  "produit": "ESATIS",
  "title": "Fichier historisé des indicateurs E-Satis en clé valeur"
}
