key,value,label
certif_id_niveau,1,Certification
certif_id_niveau,2,Certification avec recommandation(s) d’amélioration
certif_id_niveau,3,Certification avec obligation (s) d’amélioration
certif_id_niveau,4,Sursis à statuer
certif_id_niveau,5,Non certification
certif_decision_thematique_x,A,Exigence atteinte
certif_decision_thematique_x,B,Recommandation d’amélioration
certif_decision_thematique_x,C,Obligation d’amélioration
certif_decision_thematique_x,D,Réserve
